…
Let’s compare the monthly changes in TfL bike rentals to the average of the years 2017 - 2022:

glimpse(bike)

## Rows: 4,416
## Columns: 5
## $ day         <dttm> 2010-07-30, 2010-07-31, 2010-08-01, 2010-08-02, 2010-08-0…
## $ bikes_hired <dbl> 6897, 5564, 4303, 6642, 7966, 7893, 8724, 9797, 6631, 7864…
## $ year        <dbl> 2010, 2010, 2010, 2010, 2010, 2010, 2010, 2010, 2010, 2010…
## $ month       <ord> Jul, Jul, Aug, Aug, Aug, Aug, Aug, Aug, Aug, Aug, Aug, Aug…
## $ week        <dbl> 30, 30, 30, 31, 31, 31, 31, 31, 31, 31, 32, 32, 32, 32, 32…

bike

## # A tibble: 4,416 × 5
##    day                 bikes_hired  year month  week
##    <dttm>                    <dbl> <dbl> <ord> <dbl>
##  1 2010-07-30 00:00:00        6897  2010 Jul      30
##  2 2010-07-31 00:00:00        5564  2010 Jul      30
##  3 2010-08-01 00:00:00        4303  2010 Aug      30
##  4 2010-08-02 00:00:00        6642  2010 Aug      31
##  5 2010-08-03 00:00:00        7966  2010 Aug      31
##  6 2010-08-04 00:00:00        7893  2010 Aug      31
##  7 2010-08-05 00:00:00        8724  2010 Aug      31
##  8 2010-08-06 00:00:00        9797  2010 Aug      31
##  9 2010-08-07 00:00:00        6631  2010 Aug      31
## 10 2010-08-08 00:00:00        7864  2010 Aug      31
## # … with 4,406 more rows
…
